{
  "name": "ymg09t5704clnxnqfgaj2h098gz4r7gyx4wc3fzmlqj1en24zf",
  "path": "ymg09t5704clnxnqfgaj2h098gz4r7gyx4wc3fzmlqj1en24zf",
  "owner_id": null,
  "created_at": "2019-11-20 17:01:53 UTC",
  "updated_at": "2019-11-20 17:05:44 UTC",
  "description": "Group Description",
  "avatar": {
    "url": null
  },
  "membership_lock": false,
  "share_with_group_lock": false,
  "visibility_level": 0,
  "request_access_enabled": true,
  "ldap_sync_status": "ready",
  "ldap_sync_error": null,
  "ldap_sync_last_update_at": null,
  "ldap_sync_last_successful_update_at": null,
  "ldap_sync_last_sync_at": null,
  "lfs_enabled": null,
  "parent_id": null,
  "shared_runners_minutes_limit": null,
  "repository_size_limit": null,
  "require_two_factor_authentication": false,
  "two_factor_grace_period": 48,
  "plan_id": null,
  "project_creation_level": 2,
  "file_template_project_id": null,
  "saml_discovery_token": "rBKx3ioz",
  "custom_project_templates_group_id": null,
  "auto_devops_enabled": null,
  "extra_shared_runners_minutes_limit": null,
  "last_ci_minutes_notification_at": null,
  "last_ci_minutes_usage_notification_level": null,
  "subgroup_creation_level": 1,
  "emails_disabled": null,
  "max_pages_size": null,
  "max_artifacts_size": null,
  "milestones": [
    {
      "id": 7642,
      "title": "v4.0",
      "project_id": null,
      "description": "Et laudantium enim omnis ea reprehenderit iure.",
      "due_date": null,
      "created_at": "2019-11-20T17:02:14.336Z",
      "updated_at": "2019-11-20T17:02:14.336Z",
      "state": "closed",
      "iid": 5,
      "start_date": null,
      "group_id": 4351
    }
  ],
  "badges": [
    {
      "id": 10,
      "link_url": "https://localhost:3443/%{default_branch}",
      "image_url": "https://badge_image.png",
      "project_id": null,
      "group_id": 4351,
      "created_at": "2019-11-20T17:27:02.047Z",
      "updated_at": "2019-11-20T17:27:02.047Z",
      "type": "GroupBadge"
    }
  ],
  "labels": [
    {
      "id": 23452,
      "title": "Bruffefunc",
      "color": "#1d2da4",
      "project_id": null,
      "created_at": "2019-11-20T17:02:20.546Z",
      "updated_at": "2019-11-20T17:02:20.546Z",
      "template": false,
      "description": null,
      "group_id": 4351,
      "type": "GroupLabel",
      "priorities": [],
      "textColor": "#FFFFFF"
    }
  ],
  "boards": [
    {
      "id": 57,
      "project_id": null,
      "created_at": "2019-11-20T17:27:41.118Z",
      "updated_at": "2019-11-20T17:27:41.118Z",
      "name": "first board",
      "milestone_id": -2,
      "milestone": {
        "id": -2,
        "name": "#upcoming",
        "title": "Upcoming"
      },
      "group_id": 4351,
      "weight": null,
      "labels": [],
      "lists": [
        {
          "id": 231,
          "board_id": 173,
          "label_id": null,
          "list_type": "assignee",
          "position": 3,
          "created_at": "2020-02-11T17:02:14.073Z",
          "updated_at": "2020-02-11T17:02:14.073Z",
          "user_id": 70,
          "milestone_id": null,
          "max_issue_count": 0,
          "max_issue_weight": 0,
          "board": {
            "id": 173,
            "project_id": null,
            "created_at": "2020-02-11T14:35:51.561Z",
            "updated_at": "2020-02-11T14:35:51.561Z",
            "name": "hi",
            "milestone_id": null,
            "group_id": 4351,
            "weight": null
          }
        },
        {
          "id": 33,
          "board_id": 173,
          "label_id": null,
          "list_type": "milestone",
          "position": 1,
          "created_at": "2020-02-10T16:16:01.896Z",
          "updated_at": "2020-02-10T16:16:01.896Z",
          "user_id": null,
          "milestone_id": 264,
          "max_issue_count": 0,
          "max_issue_weight": 0,
          "milestone": {
            "id": 264,
            "title": "v2.2",
            "project_id": null,
            "description": "Voluptatum itaque natus laboriosam dolor omnis eaque quos cupiditate.",
            "due_date": null,
            "created_at": "2020-02-06T15:44:52.126Z",
            "updated_at": "2020-02-06T15:44:52.126Z",
            "state": "active",
            "iid": 1,
            "start_date": null,
            "group_id": 4351,
            "events": []
          },
          "board": {
            "id": 173,
            "project_id": null,
            "created_at": "2020-02-11T14:35:51.561Z",
            "updated_at": "2020-02-11T14:35:51.561Z",
            "name": "hi",
            "milestone_id": null,
            "group_id": 4351,
            "weight": null
          }
        }
      ]
    },
    {
      "id": 57,
      "project_id": null,
      "created_at": "2019-11-20T17:27:41.118Z",
      "updated_at": "2019-11-20T17:27:41.118Z",
      "name": "second board",
      "milestone_id": 7642,
      "milestone": {
        "id": 7642,
        "title": "v4.0",
        "project_id": null,
        "description": "Et laudantium enim omnis ea reprehenderit iure.",
        "due_date": null,
        "created_at": "2019-11-20T17:02:14.336Z",
        "updated_at": "2019-11-20T17:02:14.336Z",
        "state": "closed",
        "iid": 5,
        "start_date": null,
        "group_id": 4351
      },
      "group_id": 4351,
      "weight": null,
      "labels": [],
      "lists": []
    }
  ],
  "members": [
    {
      "id": 13766,
      "access_level": 30,
      "source_id": 4351,
      "source_type": "Namespace",
      "user_id": 42,
      "notification_level": 3,
      "created_at": "2019-11-20T17:04:36.184Z",
      "updated_at": "2019-11-20T17:04:36.184Z",
      "created_by_id": null,
      "invite_email": null,
      "invite_token": null,
      "invite_accepted_at": null,
      "requested_at": null,
      "expires_at": null,
      "ldap": false,
      "override": false,
      "user": {
        "id": 42,
        "email": "moriah@collinsmurphy.com",
        "username": "reported_user_15"
      }
    }
  ],
  "epics": [
    {
      "id": 13622,
      "milestone_id": null,
      "group_id": 4351,
      "author_id": 1,
      "assignee_id": null,
      "iid": 1,
      "updated_by_id": null,
      "last_edited_by_id": null,
      "lock_version": 0,
      "start_date": null,
      "end_date": null,
      "last_edited_at": null,
      "created_at": "2019-11-20T17:02:09.754Z",
      "updated_at": "2019-11-20T18:38:40.054Z",
      "title": "Provident neque consequatur numquam ad laboriosam voluptatem magnam.",
      "description": "Fugit nisi est ut numquam quia rerum vitae qui. Et in est aliquid voluptas et ut vitae. In distinctio voluptates ut deleniti iste.\n\nReiciendis eum sunt vero blanditiis at quia. Voluptate eum facilis illum ea distinctio maiores. Doloribus aut nemo ea distinctio.\n\nNihil cum distinctio voluptates quam. Laboriosam distinctio ea accusantium soluta perspiciatis nesciunt impedit. Id qui natus quis minima voluptatum velit ut reprehenderit. Molestiae quia est harum sapiente rem error architecto id. Et minus ipsa et ut ut.",
      "start_date_sourcing_milestone_id": null,
      "due_date_sourcing_milestone_id": null,
      "start_date_fixed": null,
      "due_date_fixed": null,
      "start_date_is_fixed": null,
      "due_date_is_fixed": null,
      "closed_by_id": null,
      "closed_at": null,
      "parent_id": null,
      "relative_position": null,
      "state": "opened",
      "start_date_sourcing_epic_id": null,
      "due_date_sourcing_epic_id": null,
      "notes": [
        {
          "id": 44164,
          "note": "added epic \u00262 as child epic",
          "noteable_type": "Epic",
          "author_id": 1,
          "created_at": "2019-11-20T18:38:26.689Z",
          "updated_at": "2019-11-20T18:38:26.724Z",
          "project_id": null,
          "attachment": {
            "url": null
          },
          "line_code": null,
          "commit_id": null,
          "noteable_id": 13622,
          "system": true,
          "st_diff": null,
          "updated_by_id": null,
          "position": null,
          "original_position": null,
          "resolved_at": null,
          "resolved_by_id": null,
          "discussion_id": "133f0c3001860fa8d2031e398a65db74477378c4",
          "change_position": null,
          "resolved_by_push": null,
          "review_id": null,
          "type": null,
          "author": {
            "name": "Administrator"
          },
          "award_emoji": [
            {
              "id": 12,
              "name": "drum",
              "user_id": 1,
              "awardable_type": "Note",
              "awardable_id": 44170,
              "created_at": "2019-11-05T15:32:21.287Z",
              "updated_at": "2019-11-05T15:32:21.287Z"
            }
          ]
        }
      ],
      "award_emoji": [
        {
          "id": 12,
          "name": "thumbsup",
          "user_id": 1,
          "awardable_type": "Epic",
          "awardable_id": 13622,
          "created_at": "2019-11-05T15:37:21.287Z",
          "updated_at": "2019-11-05T15:37:21.287Z"
        }
      ],
      "label_links": [
        {
          "id": 1,
          "label_id": 2,
          "target_id": 3,
          "target_type": "Epic",
          "created_at": "2021-04-14 14:42:21.717503",
          "updated_at": "2021-04-14 14:42:21.717503",
          "label": {
            "title": "title",
            "description": "description",
            "color": "#cd2c5c",
            "created_at": "2021-04-14 14:42:21.717503",
            "updated_at": "2021-04-14 14:42:21.717503",
            "type": "GroupLabel"
          }
        }
      ]
    },
    {
      "id": 13623,
      "milestone_id": null,
      "group_id": 4351,
      "author_id": 1,
      "assignee_id": null,
      "iid": 2,
      "updated_by_id": null,
      "last_edited_by_id": null,
      "lock_version": 0,
      "start_date": null,
      "end_date": null,
      "last_edited_at": null,
      "created_at": "2019-12-20T17:02:09.754Z",
      "updated_at": "2019-12-20T18:38:40.054Z",
      "title": "Provident neque consequatur numquam ad voluptatem magnam.",
      "description": "Fugit nisi",
      "start_date_sourcing_milestone_id": null,
      "due_date_sourcing_milestone_id": null,
      "start_date_fixed": null,
      "due_date_fixed": null,
      "start_date_is_fixed": null,
      "due_date_is_fixed": null,
      "closed_by_id": null,
      "closed_at": null,
      "parent_id": null,
      "relative_position": null,
      "state": "closed",
      "start_date_sourcing_epic_id": null,
      "due_date_sourcing_epic_id": null,
      "notes": [],
      "label_links": [
        {
          "id": 1,
          "label_id": 2,
          "target_id": 3,
          "target_type": "Epic",
          "created_at": "2021-04-14 14:42:21.717503",
          "updated_at": "2021-04-14 14:42:21.717503",
          "label": {
            "title": "title",
            "description": "description",
            "color": "#cd2c5c",
            "created_at": "2021-04-14 14:42:21.717503",
            "updated_at": "2021-04-14 14:42:21.717503",
            "type": "GroupLabel"
          }
        }
      ]
    }
  ]
}
